{
	"id": "a8d4d397-1fca-4e1d-9a7a-0df1fe52d255",
	"name": "Production",
	"values": [
		{
			"key": "baseUrl",
			"value": "http://Production-env.eba-vtik2p5n.us-east-1.elasticbeanstalk.com",
			"enabled": true
		}
	],
	"_postman_variable_scope": "environment",
	"_postman_exported_at": "2021-04-13T08:08:58.023Z",
	"_postman_exported_using": "Postman/8.2.1"
}